<svg width="91" height="95" viewBox="0 0 91 95" fill="none" xmlns="http://www.w3.org/2000/svg">
<g clip-path="url(#clip0)">
<path d="M46.2795 35.252C45.027 35.252 44.0198 34.2448 44.0198 32.9922V29.2217C44.0198 27.9691 45.027 26.9619 46.2795 26.9619C47.5321 26.9619 48.5393 27.9691 48.5393 29.2217V32.9922C48.5393 34.2448 47.5321 35.252 46.2795 35.252Z" fill="url(#paint0_linear)"/>
<path d="M46.2795 64.9903C45.027 64.9903 44.0198 63.9831 44.0198 62.7305V58.9599C44.0198 57.7074 45.027 56.7002 46.2795 56.7002C47.5321 56.7002 48.5393 57.7074 48.5393 58.9599V62.7305C48.5393 63.9831 47.5321 64.9903 46.2795 64.9903Z" fill="url(#paint1_linear)"/>
<path d="M37.8475 55.7446C40.7142 57.8881 43.9553 58.9728 47.4805 58.9728C48.8106 58.9728 50.0502 58.8049 51.1607 58.4692C52.2583 58.1335 53.2138 57.6428 53.9886 56.9971C54.7634 56.3644 55.3832 55.5767 55.8222 54.6728C56.2613 53.7689 56.4808 52.7101 56.4808 51.5221V51.4446C56.4808 50.4116 56.3129 49.4947 55.9643 48.7458C55.6286 47.9969 55.125 47.3383 54.4664 46.7701C53.7949 46.202 52.9556 45.6984 51.9355 45.2722C50.9024 44.8461 49.7015 44.4587 48.3457 44.1101C47.0673 43.8131 46.0085 43.5161 45.2079 43.2449C44.3814 42.9608 43.71 42.6509 43.2064 42.3281C42.6769 41.9794 42.3025 41.5662 42.0959 41.1143C41.9022 40.6882 41.7989 40.1846 41.7989 39.6293V39.5518C41.7989 38.5575 42.225 37.7182 43.0643 37.0467C43.8778 36.4011 45.0142 36.0654 46.4475 36.0654C47.5322 36.0654 48.591 36.2461 49.5853 36.5948C50.5667 36.9434 51.6126 37.447 52.6715 38.1056C52.9814 38.2993 53.3171 38.3897 53.6787 38.3897C54.1823 38.3897 54.5955 38.2218 54.9571 37.8732C55.3057 37.5245 55.4865 37.1242 55.4865 36.6206C55.4865 36.2461 55.409 35.9233 55.2412 35.678C55.0733 35.4197 54.8796 35.226 54.6601 35.1098C53.4721 34.3221 52.2196 33.7152 50.9024 33.3149C49.5982 32.9146 48.1133 32.708 46.5121 32.708C45.2595 32.708 44.0844 32.8888 43.0385 33.2503C41.9926 33.6119 41.0757 34.1026 40.3268 34.7353C39.5779 35.3551 38.9968 36.1299 38.5706 37.008C38.1445 37.8861 37.9379 38.8804 37.9379 39.9392V40.0296C37.9379 41.1659 38.1187 42.1473 38.4803 42.9221C38.8418 43.6969 39.3712 44.3812 40.0685 44.9494C40.7658 45.5176 41.6568 46.0083 42.7028 46.4086C43.7745 46.8089 45.0142 47.1833 46.3829 47.5062C47.6097 47.7773 48.6298 48.0614 49.4045 48.3455C50.1922 48.6296 50.8379 48.9524 51.3027 49.3011C51.7934 49.6626 52.1292 50.0629 52.3229 50.5019C52.5036 50.9281 52.594 51.3929 52.594 51.8836V51.9611C52.594 53.0587 52.1163 53.9626 51.1865 54.647C50.2826 55.3055 49.0688 55.6413 47.5709 55.6413C46.0989 55.6413 44.743 55.3959 43.5421 54.9181C42.3412 54.4404 41.1532 53.756 40.004 52.865C39.7328 52.6455 39.3583 52.5293 38.8806 52.5293C38.377 52.5293 37.9637 52.6971 37.6022 53.0458C37.2535 53.3944 37.0728 53.7947 37.0728 54.2983C37.0986 54.8794 37.3439 55.3572 37.8475 55.7446Z" fill="url(#paint2_linear)"/>
<path d="M8.76784 72.6088C8.01889 72.6088 7.28286 72.2343 6.85674 71.5499C2.36306 64.3833 0 56.132 0 47.6611C0 22.8168 20.2216 2.59521 45.0788 2.59521C53.5497 2.59521 61.801 4.95827 68.9547 9.45195C70.0136 10.1105 70.3364 11.5051 69.6649 12.564C69.0064 13.6228 67.6118 13.9456 66.5529 13.2742C60.1223 9.24534 52.6845 7.11472 45.0788 7.11472C22.7137 7.11472 4.51951 25.309 4.51951 47.6611C4.51951 55.2797 6.65013 62.7046 10.6789 69.1481C11.3375 70.207 11.0147 71.6016 9.96874 72.2602C9.59426 72.4926 9.18105 72.6088 8.76784 72.6088Z" fill="url(#paint3_linear)"/>
<path d="M45.079 92.74C36.621 92.74 28.3568 90.3769 21.2031 85.8832C20.1442 85.2247 19.8214 83.8301 20.4928 82.7712C21.1514 81.7124 22.546 81.3896 23.6048 82.061C30.0484 86.0898 37.4733 88.2205 45.0919 88.2205C67.457 88.2205 85.6512 70.0262 85.6512 47.6611C85.6512 40.0425 83.5206 32.6176 79.4918 26.1741C78.8332 25.1153 79.156 23.7207 80.202 23.0621C81.2608 22.4036 82.6554 22.7264 83.314 23.7723C87.7947 30.9261 90.1707 39.1903 90.1707 47.6482C90.1449 72.5184 69.9233 92.74 45.079 92.74Z" fill="url(#paint4_linear)"/>
<path d="M58.1724 17.2386C57.0619 17.2386 56.1064 16.4251 55.9385 15.3017C55.7577 14.062 56.61 12.9257 57.8496 12.7449L66.7337 11.4536L63.5054 3.07318C63.0535 1.91102 63.6346 0.606819 64.7967 0.154868C65.9589 -0.297082 67.2631 0.283997 67.715 1.44616L71.9505 12.4737C72.1958 13.1194 72.1441 13.8296 71.7955 14.4236C71.4468 15.0176 70.8529 15.4179 70.1685 15.5212L58.4823 17.2128C58.379 17.2257 58.2757 17.2386 58.1724 17.2386Z" fill="url(#paint5_linear)"/>
<path d="M22.9331 94.9998C22.0292 94.9998 21.1641 94.4446 20.8283 93.5536L16.5929 82.526C16.3476 81.8804 16.3992 81.1701 16.7479 80.5762C17.0965 79.9822 17.6905 79.5819 18.3749 79.4786L30.061 77.787C31.3007 77.6191 32.437 78.4584 32.6178 79.6981C32.7986 80.9377 31.9463 82.074 30.7067 82.2548L21.8226 83.5461L25.0509 91.9266C25.5028 93.0887 24.9217 94.3929 23.7596 94.8449C23.4755 94.9482 23.2043 94.9998 22.9331 94.9998Z" fill="url(#paint6_linear)"/>
<path d="M45.0789 79.1559C27.9694 79.1559 14.0364 65.2358 14.0364 48.1133C14.0364 30.9909 27.9565 17.0708 45.0789 17.0708C62.2014 17.0708 76.1086 30.9909 76.1086 48.1133C76.1086 50.1407 75.9149 52.168 75.5275 54.1437C75.2821 55.3704 74.0942 56.1581 72.8674 55.9256C71.6407 55.6803 70.8401 54.4923 71.0854 53.2656C71.4212 51.574 71.5891 49.8437 71.5891 48.1133C71.5891 33.4831 59.6963 21.5903 45.066 21.5903C30.4357 21.5903 18.543 33.4831 18.543 48.1133C18.543 62.7307 30.4357 74.6364 45.066 74.6364C52.7621 74.6364 60.0708 71.292 65.1197 65.4682C65.9332 64.5256 67.3665 64.4223 68.3092 65.2358C69.2518 66.0493 69.3551 67.4827 68.5416 68.4253C62.6404 75.2433 54.0792 79.1559 45.0789 79.1559Z" fill="url(#paint7_linear)"/>
</g>
<defs>
<linearGradient id="paint0_linear" x1="44.0198" y1="31.1069" x2="48.5393" y2="31.1069" gradientUnits="userSpaceOnUse">
<stop stop-color="#FF671F"/>
<stop offset="1" stop-color="#ED1C24"/>
</linearGradient>
<linearGradient id="paint1_linear" x1="44.0198" y1="60.8452" x2="48.5393" y2="60.8452" gradientUnits="userSpaceOnUse">
<stop stop-color="#FF671F"/>
<stop offset="1" stop-color="#ED1C24"/>
</linearGradient>
<linearGradient id="paint2_linear" x1="37.0728" y1="45.8404" x2="56.4808" y2="45.8404" gradientUnits="userSpaceOnUse">
<stop stop-color="#FF671F"/>
<stop offset="1" stop-color="#ED1C24"/>
</linearGradient>
<linearGradient id="paint3_linear" x1="0" y1="37.602" x2="70.0157" y2="37.602" gradientUnits="userSpaceOnUse">
<stop stop-color="#FF671F"/>
<stop offset="1" stop-color="#ED1C24"/>
</linearGradient>
<linearGradient id="paint4_linear" x1="20.1421" y1="57.7301" x2="90.1707" y2="57.7301" gradientUnits="userSpaceOnUse">
<stop stop-color="#FF671F"/>
<stop offset="1" stop-color="#ED1C24"/>
</linearGradient>
<linearGradient id="paint5_linear" x1="55.9143" y1="8.62003" x2="72.1025" y2="8.62003" gradientUnits="userSpaceOnUse">
<stop stop-color="#FF671F"/>
<stop offset="1" stop-color="#ED1C24"/>
</linearGradient>
<linearGradient id="paint6_linear" x1="16.4409" y1="86.3827" x2="32.642" y2="86.3827" gradientUnits="userSpaceOnUse">
<stop stop-color="#FF671F"/>
<stop offset="1" stop-color="#ED1C24"/>
</linearGradient>
<linearGradient id="paint7_linear" x1="14.0364" y1="48.1133" x2="76.1086" y2="48.1133" gradientUnits="userSpaceOnUse">
<stop stop-color="#FF671F"/>
<stop offset="1" stop-color="#ED1C24"/>
</linearGradient>
<clipPath id="clip0">
<rect width="90.1448" height="95" fill="white"/>
</clipPath>
</defs>
</svg>
