<svg width="29" height="20" viewBox="0 0 29 20" fill="none" xmlns="http://www.w3.org/2000/svg">
<path d="M24.9709 20H3.32673C1.59265 20 0.180664 18.588 0.180664 16.8539V3.14607C0.180664 1.41198 1.59265 0 3.32673 0H24.9709C26.705 0 28.117 1.41198 28.117 3.14607V16.8539C28.1133 18.588 26.705 20 24.9709 20ZM3.32673 1.1985C2.25183 1.1985 1.37917 2.07116 1.37917 3.14607V16.8539C1.37917 17.9288 2.25183 18.8015 3.32673 18.8015H24.9709C26.0458 18.8015 26.9185 17.9288 26.9185 16.8539V3.14607C26.9185 2.07116 26.0458 1.1985 24.9709 1.1985H3.32673Z" fill="#BDBDBD"/>
<path d="M3.49165 6.80885H1.36805C1.03846 6.80885 0.768799 6.53919 0.768799 6.2096C0.768799 5.88001 1.03846 5.61035 1.36805 5.61035H3.49165C3.82123 5.61035 4.0909 5.88001 4.0909 6.2096C4.0909 6.53919 3.82123 6.80885 3.49165 6.80885Z" fill="#BDBDBD"/>
<path d="M27.5141 6.80885H14.1471C13.8175 6.80885 13.5479 6.53919 13.5479 6.2096C13.5479 5.88001 13.8175 5.61035 14.1471 5.61035H27.5141C27.8437 5.61035 28.1134 5.88001 28.1134 6.2096C28.1134 6.53919 27.8475 6.80885 27.5141 6.80885Z" fill="#BDBDBD"/>
<path d="M8.80628 3.3633C8.47669 3.3633 8.20703 3.09363 8.20703 2.76404V0.599251C8.20703 0.269663 8.47669 0 8.80628 0C9.13587 0 9.40553 0.269663 9.40553 0.599251V2.76404C9.40553 3.09363 9.13587 3.3633 8.80628 3.3633Z" fill="#BDBDBD"/>
<path d="M8.80628 20.0001C8.47669 20.0001 8.20703 19.7305 8.20703 19.4009V12.0001C8.20703 11.6705 8.47669 11.4009 8.80628 11.4009C9.13587 11.4009 9.40553 11.6705 9.40553 12.0001V19.4009C9.40553 19.7305 9.13587 20.0001 8.80628 20.0001Z" fill="#BDBDBD"/>
<path d="M8.91827 10.3036C8.86209 10.3036 8.80591 10.2961 8.75348 10.2811L5.30404 9.2886C4.74974 9.11631 4.33026 8.9665 3.91827 8.55077C3.40891 8.0414 3.12427 7.35976 3.12427 6.62942C3.12427 5.89908 3.40517 5.22118 3.91827 4.70807C4.43138 4.19496 5.11303 3.91406 5.83962 3.91406C6.56621 3.91406 7.24786 4.19496 7.76097 4.70807C8.01565 4.96275 8.21041 5.25863 8.34899 5.58822C8.35273 5.59571 8.35648 5.60695 8.36022 5.61444L8.45386 5.88785L9.50254 9.53204C9.56247 9.74178 9.50629 9.9665 9.34899 10.1201C9.22914 10.2437 9.07558 10.3036 8.91827 10.3036ZM5.83588 5.12006C5.42764 5.12006 5.04936 5.27736 4.76472 5.562C4.48007 5.84665 4.32277 6.22867 4.32277 6.63316C4.32277 7.03766 4.48007 7.41968 4.76472 7.70433C4.9782 7.91781 5.19917 8.00021 5.64487 8.13878L8.04187 8.82792L7.22914 6.03391C7.15423 5.85414 7.04562 5.69309 6.90704 5.55826C6.62239 5.27736 6.24412 5.12006 5.83588 5.12006Z" fill="#BDBDBD"/>
<path d="M12.3189 10.7455C11.3264 10.7455 10.1579 10.6144 8.77961 10.2886C8.45751 10.2137 8.25901 9.89159 8.33392 9.5695C8.40882 9.2474 8.73092 9.0489 9.05302 9.1238C15.1129 10.5545 16.4126 7.96276 16.465 7.85414C16.6036 7.55826 16.9594 7.42343 17.2553 7.55826C17.5549 7.69309 17.6897 8.03766 17.5586 8.33729C17.5137 8.45714 16.4575 10.7455 12.3189 10.7455Z" fill="#BDBDBD"/>
<path d="M8.69367 10.3034C8.53637 10.3034 8.38281 10.2434 8.27045 10.1273C8.11689 9.97378 8.05697 9.74906 8.11689 9.53932L9.25922 5.62172C9.26296 5.61423 9.26671 5.60299 9.27045 5.5955C9.40528 5.26217 9.60378 4.96629 9.85847 4.71535C10.9184 3.65543 12.6412 3.65543 13.6974 4.71535C14.7573 5.77528 14.7573 7.49813 13.6974 8.55431C13.2817 8.97004 12.866 9.11985 12.3229 9.28839L8.86221 10.2846C8.80229 10.2959 8.74611 10.3034 8.69367 10.3034ZM10.3828 6.03745L10.3191 6.21348L9.56633 8.83146L11.9746 8.13857C12.4128 8.00374 12.63 7.92135 12.8435 7.70786C13.4352 7.1161 13.4352 6.15356 12.8435 5.5618C12.2517 4.97004 11.2892 4.97004 10.6974 5.5618C10.5663 5.69663 10.4577 5.85768 10.3828 6.03745Z" fill="#BDBDBD"/>
<path d="M5.29286 10.7452C1.15428 10.7452 0.10185 8.45679 0.0494157 8.33694C-0.0816704 8.03357 0.0569064 7.68151 0.360277 7.54668C0.663648 7.41559 1.01196 7.55042 1.14679 7.85005C1.20672 7.97739 2.51758 10.5467 8.55878 9.11971C8.88088 9.04481 9.20297 9.24331 9.27788 9.56541C9.35279 9.8875 9.15428 10.2096 8.83219 10.2845C7.45391 10.6141 6.28537 10.7452 5.29286 10.7452Z" fill="#BDBDBD"/>
</svg>
